mapsR: A guide to data analysis with R - 5 Writing/Exporting Data
…
# A tibble: 3 × 2
   clay   SOC
  <dbl> <dbl>
1     0   0.2
2    30   0.2
3    53   0.2

by specifying the cell columns

data.df<-read_excel("data/soil.xlsx", sheet=1,  range = cell_cols("A"))
print(data.df)

# A tibble: 141 × 1
    clay
   <dbl>
 1     0
 2    30
 3    53
 4     7
 5     9
 6    12
 7     4
 8     5
 9     6
10    13
# … with 131 more rows
…
